PS270 Final Project
…
library(tidyverse)
library(dplyr)

Fist Lets Clean Up The Report Card Data

report_card <- X2023_2024_district_report_card 

report_card <- report_card |>
  select("District Name", "Overall Accountability Score", "Overall Accountability Rating",
         "Grade Band for Comparison", "District Enrollment") 

report_card

# A tibble: 421 × 5
   `District Name` Overall Accountability Sco…¹ Overall Accountabili…²
   <chr>           <chr>                        <chr>                 
 1 Arrowhead UHS   80.5                         Exceeds Expectations  
 2 Big Foot UHS    61.3                         Meets Expectations    
 3 Brighton #1     71.5                         Exceeds Expectations  
 4 Bristol #1      76.7                         Exceeds Expectations  
 5 Brown Deer      67.599999999999994           Meets Expectations    
 6 Cedarburg       91.6                         Significantly Exceeds…
 7 Cudahy          58.7                         Meets Expectations    
 8 Elmbrook        85.1                         Significantly Exceeds…
 9 Fox Point J2    93.8                         Significantly Exceeds…
10 Franklin Public 75                           Exceeds Expectations  
# ℹ 411 more rows
# ℹ abbreviated names: ¹​`Overall Accountability Score`,
#   ²​`Overall Accountability Rating`
# ℹ 2 more variables: `Grade Band for Comparison` <chr>,
#   `District Enrollment` <dbl>
…
When cleaning up the data set I only had to isolate the columns I wanted being, District, Overall Accountability score, the total score a school gets out of 100 this is based on multiple factors including test scores, graduation rates, post graduation success, ect. We also needed the Overall Accountability Rating which is the rating a school is given based on their score, and District Enrollment. This leads us with all the data from the data set for the project.

#Lets clean up Ttal Current Education Cost Data

Next we will isolate the columns we need, being the school district and the TCEC (total current cost of education), this is the total expenditures of each district.

tcec_per_district <- cmpcst24_1_

tcec_per_district <- tcec_per_district |>
  select("...5", "...6")

tcec_per_district

# A tibble: 431 × 2
   ...5                  ...6              
   <chr>                 <chr>             
 1 <NA>                  <NA>              
 2 18310.044339754681    <NA>              
 3 <NA>                  TOTAL CURRENT     
 4 <NA>                  EDUCATION         
 5 <NA>                  COST              
 6 NAME                  (TCEC)            
 7 <NA>                  <NA>              
 8 Abbotsford            9947197.4900000002
 9 Adams-Friendship Area 22151450.32       
10 Albany                6361056.1699999999
# ℹ 421 more rows

Then we will rename the columns because for some reason when importing the data it messed up the names of the columns, naming them …5 and …6 instead of Total Current Education Cost and District Name.

tcec_per_district <- tcec_per_district |>
  rename(
    `District Name` = `...5`,
    `TCEC` = `...6`) 

tcec_per_district

# A tibble: 431 × 2
   `District Name`       TCEC              
   <chr>                 <chr>             
 1 <NA>                  <NA>              
 2 18310.044339754681    <NA>              
 3 <NA>                  TOTAL CURRENT     
 4 <NA>                  EDUCATION         
 5 <NA>                  COST              
 6 NAME                  (TCEC)            
 7 <NA>                  <NA>              
 8 Abbotsford            9947197.4900000002
 9 Adams-Friendship Area 22151450.32       
10 Albany                6361056.1699999999
# ℹ 421 more rows

After fixing the column names we will need to get rid of any NA’s or other random names that entered the data when importing it. It also gets rid of any school districts that lack funding data.

tcec_per_district <- tcec_per_district |>
  filter(
  `District Name` != " ", `District Name`!= "NAME", `District Name` != "18310.044339754681", 
  `District Name` != "Statewide Total")
  
tcec_per_district

# A tibble: 420 × 2
   `District Name`       TCEC              
   <chr>                 <chr>             
 1 Abbotsford            9947197.4900000002
 2 Adams-Friendship Area 22151450.32       
 3 Albany                6361056.1699999999
 4 Algoma                9757883.7799999993
 5 Alma                  3364955.93        
 6 Alma Center           7731384.6900000004
 7 Almond-Bancroft       6335849.5099999998
 8 Altoona               23774819.32       
 9 Amery                 21058378.870000001
10 Antigo                29959080.710000001
# ℹ 410 more rows

Now Lets Join These Data Sets

We are going to use inner_join to combine report_card and tcec_per_district, this will get ride of any variable that don’t match up for the two data sets. I am also assigning it to the a new data set called school district, since its now all the info we need for each school district.

school_district <- tcec_per_district |>
  inner_join(report_card)

school_district

# A tibble: 373 × 6
   `District Name` TCEC  Overall Accountabili…¹ Overall Accountabili…²
   <chr>           <chr> <chr>                  <chr>                 
 1 Abbotsford      9947… 60.2                   Meets Expectations    
 2 Adams-Friendsh… 2215… 65.599999999999994     Meets Expectations    
 3 Albany          6361… 66.7                   Meets Expectations    
 4 Algoma          9757… 63.1                   Meets Expectations    
 5 Alma            3364… 73.400000000000006     Exceeds Expectations  
 6 Alma Center     7731… 65.5                   Meets Expectations    
 7 Almond-Bancroft 6335… 60.6                   Meets Expectations    
 8 Altoona         2377… 70.3                   Exceeds Expectations  
 9 Amery           2105… 72.2                   Exceeds Expectations  
10 Appleton Area   2175… 65.599999999999994     Meets Expectations    
# ℹ 363 more rows
# ℹ abbreviated names: ¹​`Overall Accountability Score`,
#   ²​`Overall Accountability Rating`
# ℹ 2 more variables: `Grade Band for Comparison` <chr>,
#   `District Enrollment` <dbl>
…
school_district <- school_district |>
  mutate(
    "TCEC" = as.numeric(`TCEC`),
    "Overall Accountability Score" = as.numeric(`Overall Accountability Score`))

Now that its fixed we can calculate the Per-Pupil Price, which the Total Current Education Cost decided by the District Enrollment.

school_district <- school_district |>
    mutate(
      "Per-Pupil Price" = `TCEC` / `District Enrollment`
      )
    
school_district

# A tibble: 373 × 7
   `District Name`             TCEC `Overall Accountability Score`
   <chr>                      <dbl>                          <dbl>
 1 Abbotsford              9947197.                           60.2
 2 Adams-Friendship Area  22151450.                           65.6
 3 Albany                  6361056.                           66.7
 4 Algoma                  9757884.                           63.1
 5 Alma                    3364956.                           73.4
 6 Alma Center             7731385.                           65.5
 7 Almond-Bancroft         6335850.                           60.6
 8 Altoona                23774819.                           70.3
 9 Amery                  21058379.                           72.2
10 Appleton Area         217562283.                           65.6
# ℹ 363 more rows
# ℹ 4 more variables: `Overall Accountability Rating` <chr>,
#   `Grade Band for Comparison` <chr>, `District Enrollment` <dbl>,
#   `Per-Pupil Price` <dbl>
…
